"storeCode","startDate","footfalls"
"Mansfield II - 926","2016-11-16","91"
"Mansfield II - 926","2016-11-17","84"
"Mansfield II - 926","2016-11-18","97"
"Mansfield II - 926","2016-11-19","170"
"Mansfield II - 926","2016-11-10","104"
"Mansfield II - 926","2016-11-11","119"
"Mansfield II - 926","2016-11-30","96"
"Mansfield II - 926","2016-11-12","156"
"Mansfield II - 926","2016-11-13","83"
"Mansfield II - 926","2016-11-14","110"
"Mansfield II - 926","2016-11-15","87"
"Mansfield II - 926","2016-11-29","89"
"Mansfield II - 926","2016-11-04","116"
"Mansfield II - 926","2016-11-03","84"
"Mansfield II - 926","2016-11-27","105"
"Mansfield II - 926","2016-11-02","86"
"Mansfield II - 926","2016-11-28","129"
"Mansfield II - 926","2016-11-01","85"
"Mansfield II - 926","2016-11-21","80"
"Mansfield II - 926","2016-11-22","103"
"Mansfield II - 926","2016-11-09","81"
"Mansfield II - 926","2016-11-20","76"
"Mansfield II - 926","2016-11-08","107"
"Mansfield II - 926","2016-11-25","165"
"Mansfield II - 926","2016-11-26","204"
"Mansfield II - 926","2016-11-07","87"
"Mansfield II - 926","2016-11-06","94"
"Mansfield II - 926","2016-11-23","88"
"Mansfield II - 926","2016-11-05","188"
"Mansfield II - 926","2016-11-24","114"
"Glasgow Forge - 1055","2016-11-16","125"
"Glasgow Forge - 1055","2016-11-17","101"
"Glasgow Forge - 1055","2016-11-18","125"
"Glasgow Forge - 1055","2016-11-19","172"
"Glasgow Forge - 1055","2016-11-10","118"
"Glasgow Forge - 1055","2016-11-11","105"
"Glasgow Forge - 1055","2016-11-30","88"
"Glasgow Forge - 1055","2016-11-12","161"
"Glasgow Forge - 1055","2016-11-13","144"
"Glasgow Forge - 1055","2016-11-14","88"
"Glasgow Forge - 1055","2016-11-15","115"
"Glasgow Forge - 1055","2016-11-29","102"
"Glasgow Forge - 1055","2016-11-04","128"
"Glasgow Forge - 1055","2016-11-03","97"
"Glasgow Forge - 1055","2016-11-27","143"
"Glasgow Forge - 1055","2016-11-02","111"
"Glasgow Forge - 1055","2016-11-28","107"
"Glasgow Forge - 1055","2016-11-01","120"
"Glasgow Forge - 1055","2016-11-21","78"
"Glasgow Forge - 1055","2016-11-22","94"
"Glasgow Forge - 1055","2016-11-09","108"
"Glasgow Forge - 1055","2016-11-20","99"
"Glasgow Forge - 1055","2016-11-08","92"
"Glasgow Forge - 1055","2016-11-25","187"
"Glasgow Forge - 1055","2016-11-26","191"
"Glasgow Forge - 1055","2016-11-07","91"
"Glasgow Forge - 1055","2016-11-06","169"
"Glasgow Forge - 1055","2016-11-23","81"
"Glasgow Forge - 1055","2016-11-05","190"
"Glasgow Forge - 1055","2016-11-24","108"
"Grimsby - 860","2016-11-16","88"
"Grimsby - 860","2016-11-17","80"
"Grimsby - 860","2016-11-18","118"
"Grimsby - 860","2016-11-19","215"
"Grimsby - 860","2016-11-10","118"
"Grimsby - 860","2016-11-11","114"
"Grimsby - 860","2016-11-30","77"
"Grimsby - 860","2016-11-12","175"
"Grimsby - 860","2016-11-13","116"
"Grimsby - 860","2016-11-14","91"
"Grimsby - 860","2016-11-15","103"
"Grimsby - 860","2016-11-29","117"
"Grimsby - 860","2016-11-04","89"
"Grimsby - 860","2016-11-03","116"
"Grimsby - 860","2016-11-27","113"
"Grimsby - 860","2016-11-02","93"
"Grimsby - 860","2016-11-28","104"
"Grimsby - 860","2016-11-01","105"
"Grimsby - 860","2016-11-21","119"
"Grimsby - 860","2016-11-22","86"
"Grimsby - 860","2016-11-09","85"
"Grimsby - 860","2016-11-20","88"
"Grimsby - 860","2016-11-08","136"
"Grimsby - 860","2016-11-25","176"
"Grimsby - 860","2016-11-26","221"
"Grimsby - 860","2016-11-07","113"
"Grimsby - 860","2016-11-06","128"
"Grimsby - 860","2016-11-23","86"
"Grimsby - 860","2016-11-05","199"
"Grimsby - 860","2016-11-24","127"
"Folkestone II - 1123","2016-11-16","98"
"Folkestone II - 1123","2016-11-17","80"
"Folkestone II - 1123","2016-11-18","75"
"Folkestone II - 1123","2016-11-19","119"
"Folkestone II - 1123","2016-11-10","78"
"Folkestone II - 1123","2016-11-11","98"
"Folkestone II - 1123","2016-11-30","70"
"Folkestone II - 1123","2016-11-12","121"
"Folkestone II - 1123","2016-11-13","86"
"Folkestone II - 1123","2016-11-14","98"
"Folkestone II - 1123","2016-11-15","75"
"Folkestone II - 1123","2016-11-29","77"
"Folkestone II - 1123","2016-11-04","79"
"Folkestone II - 1123","2016-11-03","91"
"Folkestone II - 1123","2016-11-27","97"
"Folkestone II - 1123","2016-11-02","99"
"Folkestone II - 1123","2016-11-28","82"
"Folkestone II - 1123","2016-11-01","79"
"Folkestone II - 1123","2016-11-21","81"
"Folkestone II - 1123","2016-11-22","79"
"Folkestone II - 1123","2016-11-09","100"
"Folkestone II - 1123","2016-11-20","58"
"Folkestone II - 1123","2016-11-08","70"
"Folkestone II - 1123","2016-11-25","122"
"Folkestone II - 1123","2016-11-26","167"
"Folkestone II - 1123","2016-11-07","65"
"Folkestone II - 1123","2016-11-06","72"
"Folkestone II - 1123","2016-11-23","69"
"Folkestone II - 1123","2016-11-05","173"
"Folkestone II - 1123","2016-11-24","103"
"Dunfermline - 1086","2016-11-16","71"
"Dunfermline - 1086","2016-11-17","100"
"Dunfermline - 1086","2016-11-18","107"
"Dunfermline - 1086","2016-11-19","141"
"Dunfermline - 1086","2016-11-10","93"
"Dunfermline - 1086","2016-11-11","102"
"Dunfermline - 1086","2016-11-30","110"
"Dunfermline - 1086","2016-11-12","170"
"Dunfermline - 1086","2016-11-13","89"
"Dunfermline - 1086","2016-11-14","94"
"Dunfermline - 1086","2016-11-15","82"
"Dunfermline - 1086","2016-11-29","129"
"Dunfermline - 1086","2016-11-04","108"
"Dunfermline - 1086","2016-11-03","116"
"Dunfermline - 1086","2016-11-27","91"
"Dunfermline - 1086","2016-11-02","124"
"Dunfermline - 1086","2016-11-28","84"
"Dunfermline - 1086","2016-11-01","129"
"Dunfermline - 1086","2016-11-21","74"
"Dunfermline - 1086","2016-11-22","77"
"Dunfermline - 1086","2016-11-09","82"
"Dunfermline - 1086","2016-11-20","83"
"Dunfermline - 1086","2016-11-08","110"
"Dunfermline - 1086","2016-11-25","121"
"Dunfermline - 1086","2016-11-26","164"
"Dunfermline - 1086","2016-11-07","121"
"Dunfermline - 1086","2016-11-06","109"
"Dunfermline - 1086","2016-11-23","90"
"Dunfermline - 1086","2016-11-05","143"
"Dunfermline - 1086","2016-11-24","107"
"Derby - 1187","2016-11-16","74"
"Derby - 1187","2016-11-17","80"
"Derby - 1187","2016-11-18","106"
"Derby - 1187","2016-11-19","149"
"Derby - 1187","2016-11-10","84"
"Derby - 1187","2016-11-11","81"
"Derby - 1187","2016-11-30","84"
"Derby - 1187","2016-11-12","124"
"Derby - 1187","2016-11-13","52"
"Derby - 1187","2016-11-14","78"
"Derby - 1187","2016-11-15","84"
"Derby - 1187","2016-11-29","93"
"Derby - 1187","2016-11-04","102"
"Derby - 1187","2016-11-03","89"
"Derby - 1187","2016-11-27","72"
"Derby - 1187","2016-11-02","105"
"Derby - 1187","2016-11-28","99"
"Derby - 1187","2016-11-01","99"
"Derby - 1187","2016-11-21","67"
"Derby - 1187","2016-11-22","96"
"Derby - 1187","2016-11-09","75"
"Derby - 1187","2016-11-20","58"
"Derby - 1187","2016-11-08","86"
"Derby - 1187","2016-11-25","142"
"Derby - 1187","2016-11-26","122"
"Derby - 1187","2016-11-07","81"
"Derby - 1187","2016-11-06","65"
"Derby - 1187","2016-11-23","81"
"Derby - 1187","2016-11-05","124"
"Derby - 1187","2016-11-24","61"
"Dundee I - 830","2016-11-16","166"
"Dundee I - 830","2016-11-17","214"
"Dundee I - 830","2016-11-18","198"
"Dundee I - 830","2016-11-19","260"
"Dundee I - 830","2016-11-10","219"
"Dundee I - 830","2016-11-11","204"
"Dundee I - 830","2016-11-30","156"
"Dundee I - 830","2016-11-12","259"
"Dundee I - 830","2016-11-13","160"
"Dundee I - 830","2016-11-14","128"
"Dundee I - 830","2016-11-15","139"
"Dundee I - 830","2016-11-29","165"
"Dundee I - 830","2016-11-04","152"
"Dundee I - 830","2016-11-03","181"
"Dundee I - 830","2016-11-27","196"
"Dundee I - 830","2016-11-02","167"
"Dundee I - 830","2016-11-28","182"
"Dundee I - 830","2016-11-01","206"
"Dundee I - 830","2016-11-21","108"
"Dundee I - 830","2016-11-22","167"
"Dundee I - 830","2016-11-09","167"
"Dundee I - 830","2016-11-20","175"
"Dundee I - 830","2016-11-08","135"
"Dundee I - 830","2016-11-25","241"
"Dundee I - 830","2016-11-26","307"
"Dundee I - 830","2016-11-07","151"
"Dundee I - 830","2016-11-06","230"
"Dundee I - 830","2016-11-23","139"
"Dundee I - 830","2016-11-05","290"
"Dundee I - 830","2016-11-24","188"
"East Kilbride - 866","2016-11-16","90"
"East Kilbride - 866","2016-11-17","126"
"East Kilbride - 866","2016-11-18","113"
"East Kilbride - 866","2016-11-19","197"
"East Kilbride - 866","2016-11-10","115"
"East Kilbride - 866","2016-11-11","105"
"East Kilbride - 866","2016-11-30","77"
"East Kilbride - 866","2016-11-12","178"
"East Kilbride - 866","2016-11-13","97"
"East Kilbride - 866","2016-11-14","86"
"East Kilbride - 866","2016-11-15","94"
"East Kilbride - 866","2016-11-29","97"
"East Kilbride - 866","2016-11-04","103"
"East Kilbride - 866","2016-11-03","102"
"East Kilbride - 866","2016-11-27","140"
"East Kilbride - 866","2016-11-02","120"
"East Kilbride - 866","2016-11-28","105"
"East Kilbride - 866","2016-11-01","80"
"East Kilbride - 866","2016-11-21","141"
"East Kilbride - 866","2016-11-22","127"
"East Kilbride - 866","2016-11-09","121"
"East Kilbride - 866","2016-11-20","130"
"East Kilbride - 866","2016-11-08","93"
"East Kilbride - 866","2016-11-25","164"
"East Kilbride - 866","2016-11-26","189"
"East Kilbride - 866","2016-11-07","90"
"East Kilbride - 866","2016-11-06","115"
"East Kilbride - 866","2016-11-23","94"
"East Kilbride - 866","2016-11-05","127"
"East Kilbride - 866","2016-11-24","87"
"Ealing Broadway - 1332","2016-11-16","212"
"Ealing Broadway - 1332","2016-11-17","160"
"Ealing Broadway - 1332","2016-11-18","194"
"Ealing Broadway - 1332","2016-11-19","256"
"Ealing Broadway - 1332","2016-11-10","214"
"Ealing Broadway - 1332","2016-11-11","194"
"Ealing Broadway - 1332","2016-11-30","184"
"Ealing Broadway - 1332","2016-11-12","263"
"Ealing Broadway - 1332","2016-11-13","240"
"Ealing Broadway - 1332","2016-11-14","213"
"Ealing Broadway - 1332","2016-11-15","171"
"Ealing Broadway - 1332","2016-11-29","194"
"Ealing Broadway - 1332","2016-11-04","200"
"Ealing Broadway - 1332","2016-11-03","205"
"Ealing Broadway - 1332","2016-11-27","224"
"Ealing Broadway - 1332","2016-11-02","191"
"Ealing Broadway - 1332","2016-11-28","219"
"Ealing Broadway - 1332","2016-11-01","251"
"Ealing Broadway - 1332","2016-11-21","196"
"Ealing Broadway - 1332","2016-11-22","190"
"Ealing Broadway - 1332","2016-11-09","198"
"Ealing Broadway - 1332","2016-11-20","215"
"Ealing Broadway - 1332","2016-11-08","186"
"Ealing Broadway - 1332","2016-11-25","326"
"Ealing Broadway - 1332","2016-11-26","283"
"Ealing Broadway - 1332","2016-11-07","230"
"Ealing Broadway - 1332","2016-11-06","183"
"Ealing Broadway - 1332","2016-11-23","174"
"Ealing Broadway - 1332","2016-11-05","291"
"Ealing Broadway - 1332","2016-11-24","224"
"Bangor - 1083","2016-11-16","113"
"Bangor - 1083","2016-11-17","75"
"Bangor - 1083","2016-11-18","141"
"Bangor - 1083","2016-11-19","87"
"Bangor - 1083","2016-11-10","124"
"Bangor - 1083","2016-11-11","111"
"Bangor - 1083","2016-11-30","109"
"Bangor - 1083","2016-11-12","105"
"Bangor - 1083","2016-11-13","63"
"Bangor - 1083","2016-11-14","111"
"Bangor - 1083","2016-11-15","78"
"Bangor - 1083","2016-11-29","77"
"Bangor - 1083","2016-11-04","111"
"Bangor - 1083","2016-11-03","121"
"Bangor - 1083","2016-11-27","72"
"Bangor - 1083","2016-11-02","102"
"Bangor - 1083","2016-11-28","78"
"Bangor - 1083","2016-11-01","94"
"Bangor - 1083","2016-11-21","69"
"Bangor - 1083","2016-11-22","87"
"Bangor - 1083","2016-11-09","84"
"Bangor - 1083","2016-11-20","66"
"Bangor - 1083","2016-11-08","102"
"Bangor - 1083","2016-11-25","172"
"Bangor - 1083","2016-11-26","95"
"Bangor - 1083","2016-11-07","110"
"Bangor - 1083","2016-11-06","104"
"Bangor - 1083","2016-11-23","96"
"Bangor - 1083","2016-11-05","107"
"Bangor - 1083","2016-11-24","91"
"Camberley - 1153","2016-11-16","65"
"Camberley - 1153","2016-11-17","48"
"Camberley - 1153","2016-11-18","53"
"Camberley - 1153","2016-11-19","118"
"Camberley - 1153","2016-11-10","70"
"Camberley - 1153","2016-11-11","67"
"Camberley - 1153","2016-11-30","75"
"Camberley - 1153","2016-11-12","134"
"Camberley - 1153","2016-11-13","102"
"Camberley - 1153","2016-11-14","46"
"Camberley - 1153","2016-11-15","68"
"Camberley - 1153","2016-11-29","62"
"Camberley - 1153","2016-11-04","60"
"Camberley - 1153","2016-11-03","83"
"Camberley - 1153","2016-11-27","128"
"Camberley - 1153","2016-11-02","74"
"Camberley - 1153","2016-11-28","69"
"Camberley - 1153","2016-11-01","76"
"Camberley - 1153","2016-11-21","72"
"Camberley - 1153","2016-11-22","60"
"Camberley - 1153","2016-11-09","77"
"Camberley - 1153","2016-11-20","50"
"Camberley - 1153","2016-11-08","79"
"Camberley - 1153","2016-11-25","106"
"Camberley - 1153","2016-11-26","131"
"Camberley - 1153","2016-11-07","78"
"Camberley - 1153","2016-11-06","83"
"Camberley - 1153","2016-11-23","53"
"Camberley - 1153","2016-11-05","148"
"Camberley - 1153","2016-11-24","80"
"Dunstable - 1103","2016-11-16","70"
"Dunstable - 1103","2016-11-17","76"
"Dunstable - 1103","2016-11-18","62"
"Dunstable - 1103","2016-11-19","106"
"Dunstable - 1103","2016-11-10","63"
"Dunstable - 1103","2016-11-11","62"
"Dunstable - 1103","2016-11-30","60"
"Dunstable - 1103","2016-11-12","97"
"Dunstable - 1103","2016-11-13","50"
"Dunstable - 1103","2016-11-14","65"
"Dunstable - 1103","2016-11-15","52"
"Dunstable - 1103","2016-11-29","78"
"Dunstable - 1103","2016-11-04","65"
"Dunstable - 1103","2016-11-03","68"
"Dunstable - 1103","2016-11-27","63"
"Dunstable - 1103","2016-11-02","88"
"Dunstable - 1103","2016-11-28","82"
"Dunstable - 1103","2016-11-01","51"
"Dunstable - 1103","2016-11-21","81"
"Dunstable - 1103","2016-11-22","71"
"Dunstable - 1103","2016-11-09","73"
"Dunstable - 1103","2016-11-20","52"
"Dunstable - 1103","2016-11-08","73"
"Dunstable - 1103","2016-11-25","81"
"Dunstable - 1103","2016-11-26","126"
"Dunstable - 1103","2016-11-07","119"
"Dunstable - 1103","2016-11-06","52"
"Dunstable - 1103","2016-11-23","61"
"Dunstable - 1103","2016-11-05","88"
"Dunstable - 1103","2016-11-24","91"
"Aberdeen - 804","2016-11-16","105"
"Aberdeen - 804","2016-11-17","103"
"Aberdeen - 804","2016-11-18","105"
"Aberdeen - 804","2016-11-19","128"
"Aberdeen - 804","2016-11-10","114"
"Aberdeen - 804","2016-11-11","105"
"Aberdeen - 804","2016-11-30","97"
"Aberdeen - 804","2016-11-12","143"
"Aberdeen - 804","2016-11-13","75"
"Aberdeen - 804","2016-11-14","105"
"Aberdeen - 804","2016-11-15","124"
"Aberdeen - 804","2016-11-29","79"
"Aberdeen - 804","2016-11-04","94"
"Aberdeen - 804","2016-11-03","120"
"Aberdeen - 804","2016-11-27","115"
"Aberdeen - 804","2016-11-02","102"
"Aberdeen - 804","2016-11-28","100"
"Aberdeen - 804","2016-11-01","110"
"Aberdeen - 804","2016-11-21","95"
"Aberdeen - 804","2016-11-22","95"
"Aberdeen - 804","2016-11-09","109"
"Aberdeen - 804","2016-11-20","109"
"Aberdeen - 804","2016-11-08","87"
"Aberdeen - 804","2016-11-25","183"
"Aberdeen - 804","2016-11-26","187"
"Aberdeen - 804","2016-11-07","104"
"Aberdeen - 804","2016-11-06","103"
"Aberdeen - 804","2016-11-23","76"
"Aberdeen - 804","2016-11-05","177"
"Aberdeen - 804","2016-11-24","104"
"Ashton under Lyne II - 1050","2016-11-16","84"
"Ashton under Lyne II - 1050","2016-11-17","94"
"Ashton under Lyne II - 1050","2016-11-18","76"
"Ashton under Lyne II - 1050","2016-11-19","151"
"Ashton under Lyne II - 1050","2016-11-10","108"
"Ashton under Lyne II - 1050","2016-11-11","121"
"Ashton under Lyne II - 1050","2016-11-30","87"
"Ashton under Lyne II - 1050","2016-11-12","158"
"Ashton under Lyne II - 1050","2016-11-13","90"
"Ashton under Lyne II - 1050","2016-11-14","68"
"Ashton under Lyne II - 1050","2016-11-15","100"
"Ashton under Lyne II - 1050","2016-11-29","92"
"Ashton under Lyne II - 1050","2016-11-04","92"
"Ashton under Lyne II - 1050","2016-11-03","104"
"Ashton under Lyne II - 1050","2016-11-27","96"
"Ashton under Lyne II - 1050","2016-11-02","104"
"Ashton under Lyne II - 1050","2016-11-28","98"
"Ashton under Lyne II - 1050","2016-11-01","126"
"Ashton under Lyne II - 1050","2016-11-21","79"
"Ashton under Lyne II - 1050","2016-11-22","93"
"Ashton under Lyne II - 1050","2016-11-09","113"
"Ashton under Lyne II - 1050","2016-11-20","91"
"Ashton under Lyne II - 1050","2016-11-08","110"
"Ashton under Lyne II - 1050","2016-11-25","139"
"Ashton under Lyne II - 1050","2016-11-26","156"
"Ashton under Lyne II - 1050","2016-11-07","113"
"Ashton under Lyne II - 1050","2016-11-06","88"
"Ashton under Lyne II - 1050","2016-11-23","108"
"Ashton under Lyne II - 1050","2016-11-05","157"
"Ashton under Lyne II - 1050","2016-11-24","89"
"Pontypridd - 1118","2016-11-16","62"
"Pontypridd - 1118","2016-11-17","69"
"Pontypridd - 1118","2016-11-18","65"
"Pontypridd - 1118","2016-11-19","85"
"Pontypridd - 1118","2016-11-10","58"
"Pontypridd - 1118","2016-11-11","65"
"Pontypridd - 1118","2016-11-30","61"
"Pontypridd - 1118","2016-11-12","104"
"Pontypridd - 1118","2016-11-13","36"
"Pontypridd - 1118","2016-11-14","59"
"Pontypridd - 1118","2016-11-15","59"
"Pontypridd - 1118","2016-11-29","62"
"Pontypridd - 1118","2016-11-04","65"
"Pontypridd - 1118","2016-11-03","53"
"Pontypridd - 1118","2016-11-27","41"
"Pontypridd - 1118","2016-11-02","66"
"Pontypridd - 1118","2016-11-28","74"
"Pontypridd - 1118","2016-11-01","61"
"Pontypridd - 1118","2016-11-21","43"
"Pontypridd - 1118","2016-11-22","56"
"Pontypridd - 1118","2016-11-09","80"
"Pontypridd - 1118","2016-11-20","36"
"Pontypridd - 1118","2016-11-08","68"
"Pontypridd - 1118","2016-11-25","78"
"Pontypridd - 1118","2016-11-26","105"
"Pontypridd - 1118","2016-11-07","63"
"Pontypridd - 1118","2016-11-06","40"
"Pontypridd - 1118","2016-11-23","58"
"Pontypridd - 1118","2016-11-05","89"
"Pontypridd - 1118","2016-11-24","56"
"Eastleigh - 1160","2016-11-16","57"
"Eastleigh - 1160","2016-11-17","38"
"Eastleigh - 1160","2016-11-18","44"
"Eastleigh - 1160","2016-11-19","91"
"Eastleigh - 1160","2016-11-10","48"
"Eastleigh - 1160","2016-11-11","41"
"Eastleigh - 1160","2016-11-30","32"
"Eastleigh - 1160","2016-11-12","72"
"Eastleigh - 1160","2016-11-13","39"
"Eastleigh - 1160","2016-11-14","58"
"Eastleigh - 1160","2016-11-15","37"
"Eastleigh - 1160","2016-11-29","29"
"Eastleigh - 1160","2016-11-04","47"
"Eastleigh - 1160","2016-11-03","53"
"Eastleigh - 1160","2016-11-27","45"
"Eastleigh - 1160","2016-11-02","37"
"Eastleigh - 1160","2016-11-28","44"
"Eastleigh - 1160","2016-11-01","38"
"Eastleigh - 1160","2016-11-21","42"
"Eastleigh - 1160","2016-11-22","37"
"Eastleigh - 1160","2016-11-09","47"
"Eastleigh - 1160","2016-11-20","48"
"Eastleigh - 1160","2016-11-08","36"
"Eastleigh - 1160","2016-11-25","64"
"Eastleigh - 1160","2016-11-26","91"
"Eastleigh - 1160","2016-11-07","41"
"Eastleigh - 1160","2016-11-06","38"
"Eastleigh - 1160","2016-11-23","36"
"Eastleigh - 1160","2016-11-05","101"
"Eastleigh - 1160","2016-11-24","44"
"Gateshead II - 840","2016-11-16","199"
"Gateshead II - 840","2016-11-17","178"
"Gateshead II - 840","2016-11-18","245"
"Gateshead II - 840","2016-11-19","339"
"Gateshead II - 840","2016-11-10","198"
"Gateshead II - 840","2016-11-11","206"
"Gateshead II - 840","2016-11-30","197"
"Gateshead II - 840","2016-11-12","312"
"Gateshead II - 840","2016-11-13","221"
"Gateshead II - 840","2016-11-14","162"
"Gateshead II - 840","2016-11-15","174"
"Gateshead II - 840","2016-11-29","156"
"Gateshead II - 840","2016-11-04","255"
"Gateshead II - 840","2016-11-03","222"
"Gateshead II - 840","2016-11-27","229"
"Gateshead II - 840","2016-11-02","223"
"Gateshead II - 840","2016-11-28","234"
"Gateshead II - 840","2016-11-01","195"
"Gateshead II - 840","2016-11-21","211"
"Gateshead II - 840","2016-11-22","187"
"Gateshead II - 840","2016-11-09","252"
"Gateshead II - 840","2016-11-20","230"
"Gateshead II - 840","2016-11-08","195"
"Gateshead II - 840","2016-11-25","339"
"Gateshead II - 840","2016-11-26","335"
"Gateshead II - 840","2016-11-07","245"
"Gateshead II - 840","2016-11-06","255"
"Gateshead II - 840","2016-11-23","214"
"Gateshead II - 840","2016-11-05","333"
"Gateshead II - 840","2016-11-24","199"
